

  {
  "Code": 200,
  "Message": "success",
  "Result": {
    "data": [
      {
        "add_wa_time": 0,
        "cid": "2562026467397501824",
        "clc_at": "2025-07-30 01:08:44",
        "coc_at": "2025-07-30 01:08:44",
        "collector": "KAT_agent2_C3",
        "cop_at": "2025-07-30 01:08:44",
        "customer_name": "MULYATIN",
        "cycle_id": 5,
        "entry_date": "2025-12-01 03:49:07",
        "follow_up_date": null,
        "is_first_loan": 1,
        "is_new": 0,
        "last_bombing_time": "2025-11-01 14:16:06",
        "last_phone_status": 3,
        "mobile_no": "85775466745",
        "overdue_days": 78,
        "ptp_due_date": null,
        "robot_result": "G",
        "status": 1,
        "uid": "7702013932728755992",
        "unpaid": "1347525.00"
      }
    ],
    "page": 1,
    "page_size": 100,
    "total_count": 332,
    "total_page": 4,
    "total_unpaid": 0
  }
}